EESchema Schematic File Version 4
LIBS:photometer-cache
EELAYER 26 0
EELAYER END
$Descr A4 11693 8268
encoding utf-8
Sheet 1 1
Title ""
Date ""
Rev ""
Comp ""
Comment1 ""
Comment2 ""
Comment3 ""
Comment4 ""
$EndDescr
$Comp
L custom:AD8652 U1
U 1 1 5B703158
P 3500 2600
F 0 "U1" H 3500 2750 50  0000 C CNN
F 1 "AD8652" H 3500 2850 50  0000 C CNN
F 2 "Package_SO:SOIC-8_3.9x4.9mm_P1.27mm" H 3500 2600 50  0001 C CNN
F 3 "www.st.com/resource/en/datasheet/tsv911.pdf" H 3500 2600 50  0001 C CNN
	1    3500 2600
	1    0    0    1   
$EndComp
$Comp
L custom:AD8652 U1
U 2 1 5B7031D5
P 5200 2700
F 0 "U1" H 5200 3067 50  0000 C CNN
F 1 "AD8652" H 5200 2976 50  0000 C CNN
F 2 "Package_SO:SOIC-8_3.9x4.9mm_P1.27mm" H 5200 2700 50  0001 C CNN
F 3 "www.st.com/resource/en/datasheet/tsv911.pdf" H 5200 2700 50  0001 C CNN
	2    5200 2700
	1    0    0    -1  
$EndComp
$Comp
L custom:AD8652 U1
U 3 1 5B703248
P 7800 4850
F 0 "U1" H 7758 4896 50  0000 L CNN
F 1 "AD8652" H 7758 4805 50  0000 L CNN
F 2 "Package_SO:SOIC-8_3.9x4.9mm_P1.27mm" H 7800 4850 50  0001 C CNN
F 3 "www.st.com/resource/en/datasheet/tsv911.pdf" H 7800 4850 50  0001 C CNN
	3    7800 4850
	1    0    0    -1  
$EndComp
$Comp
L Sensor_Optical:SFH203 D1
U 1 1 5B7033F1
P 2800 3300
F 0 "D1" V 2704 3458 50  0000 L CNN
F 1 "SFH203" V 2795 3458 50  0000 L CNN
F 2 "LED_THT:LED_D5.0mm" H 2800 3475 50  0001 C CNN
F 3 "http://www.osram-os.com/Graphics/XPic9/00101656_0.pdf/SFH%20203,%20SFH%20203%20FA,%20Lead%20(Pb)%20Free%20Product%20-%20RoHS%20Compliant.pdf" H 2750 3300 50  0001 C CNN
	1    2800 3300
	0    1    1    0   
$EndComp
$Comp
L Device:R R2
U 1 1 5B7034E4
P 3500 2300
F 0 "R2" V 3293 2300 50  0000 C CNN
F 1 "17.4k" V 3384 2300 50  0000 C CNN
F 2 "Resistor_SMD:R_0603_1608Metric" V 3430 2300 50  0001 C CNN
F 3 "~" H 3500 2300 50  0001 C CNN
	1    3500 2300
	0    1    1    0   
$EndComp
$Comp
L Device:C C1
U 1 1 5B7035C6
P 3500 1950
F 0 "C1" V 3248 1950 50  0000 C CNN
F 1 "3p" V 3339 1950 50  0000 C CNN
F 2 "Capacitor_SMD:C_0603_1608Metric" H 3538 1800 50  0001 C CNN
F 3 "~" H 3500 1950 50  0001 C CNN
	1    3500 1950
	0    1    1    0   
$EndComp
$Comp
L power:GND #PWR02
U 1 1 5B7038F9
P 3100 2800
F 0 "#PWR02" H 3100 2550 50  0001 C CNN
F 1 "GND" H 3105 2627 50  0000 C CNN
F 2 "" H 3100 2800 50  0001 C CNN
F 3 "" H 3100 2800 50  0001 C CNN
	1    3100 2800
	1    0    0    -1  
$EndComp
Wire Wire Line
	3800 2600 3900 2600
Wire Wire Line
	2800 2500 3100 2500
Wire Wire Line
	2800 3100 2800 2500
Wire Wire Line
	3200 2700 3100 2700
Wire Wire Line
	3100 2700 3100 2800
Wire Wire Line
	3350 2300 3100 2300
Wire Wire Line
	3100 2300 3100 2500
Connection ~ 3100 2500
Wire Wire Line
	3100 2500 3200 2500
Wire Wire Line
	3650 2300 3900 2300
Wire Wire Line
	3900 2300 3900 2600
Wire Wire Line
	3350 1950 3100 1950
Wire Wire Line
	3100 1950 3100 2300
Connection ~ 3100 2300
Wire Wire Line
	3650 1950 3900 1950
Wire Wire Line
	3900 1950 3900 2300
Connection ~ 3900 2300
$Comp
L power:GND #PWR01
U 1 1 5B70463C
P 2800 3500
F 0 "#PWR01" H 2800 3250 50  0001 C CNN
F 1 "GND" H 2805 3327 50  0000 C CNN
F 2 "" H 2800 3500 50  0001 C CNN
F 3 "" H 2800 3500 50  0001 C CNN
	1    2800 3500
	1    0    0    -1  
$EndComp
Wire Wire Line
	2800 3400 2800 3500
$Comp
L Device:R R3
U 1 1 5B70472E
P 4300 2600
F 0 "R3" V 4093 2600 50  0000 C CNN
F 1 "267" V 4184 2600 50  0000 C CNN
F 2 "Resistor_SMD:R_0603_1608Metric" V 4230 2600 50  0001 C CNN
F 3 "~" H 4300 2600 50  0001 C CNN
	1    4300 2600
	0    1    1    0   
$EndComp
$Comp
L Device:C C4
U 1 1 5B704768
P 4550 2850
F 0 "C4" H 4435 2804 50  0000 R CNN
F 1 "150p" H 4435 2895 50  0000 R CNN
F 2 "Capacitor_SMD:C_0603_1608Metric" H 4588 2700 50  0001 C CNN
F 3 "~" H 4550 2850 50  0001 C CNN
	1    4550 2850
	-1   0    0    1   
$EndComp
$Comp
L Device:R R4
U 1 1 5B704D46
P 5600 2950
F 0 "R4" H 5670 2996 50  0000 L CNN
F 1 "464" H 5670 2905 50  0000 L CNN
F 2 "Resistor_SMD:R_0603_1608Metric" V 5530 2950 50  0001 C CNN
F 3 "~" H 5600 2950 50  0001 C CNN
	1    5600 2950
	1    0    0    -1  
$EndComp
$Comp
L Device:R R5
U 1 1 5B704FD5
P 5600 3350
F 0 "R5" H 5670 3396 50  0000 L CNN
F 1 "44.2" H 5670 3305 50  0000 L CNN
F 2 "Resistor_SMD:R_0603_1608Metric" V 5530 3350 50  0001 C CNN
F 3 "~" H 5600 3350 50  0001 C CNN
	1    5600 3350
	1    0    0    -1  
$EndComp
Wire Wire Line
	4900 2800 4900 3150
Wire Wire Line
	4900 3150 5600 3150
Wire Wire Line
	5600 3150 5600 3100
Wire Wire Line
	5600 3200 5600 3150
Wire Wire Line
	5600 2800 5600 2700
Wire Wire Line
	5600 2700 5500 2700
$Comp
L power:GND #PWR04
U 1 1 5B7054EE
P 5600 3600
F 0 "#PWR04" H 5600 3350 50  0001 C CNN
F 1 "GND" H 5605 3427 50  0000 C CNN
F 2 "" H 5600 3600 50  0001 C CNN
F 3 "" H 5600 3600 50  0001 C CNN
	1    5600 3600
	1    0    0    -1  
$EndComp
Wire Wire Line
	5600 3500 5600 3600
$Comp
L power:GND #PWR03
U 1 1 5B705774
P 4550 3150
F 0 "#PWR03" H 4550 2900 50  0001 C CNN
F 1 "GND" H 4555 2977 50  0000 C CNN
F 2 "" H 4550 3150 50  0001 C CNN
F 3 "" H 4550 3150 50  0001 C CNN
	1    4550 3150
	1    0    0    -1  
$EndComp
Wire Wire Line
	4550 3000 4550 3150
Wire Wire Line
	4550 2700 4550 2600
Connection ~ 4550 2600
Wire Wire Line
	4550 2600 4900 2600
Wire Wire Line
	4450 2600 4550 2600
Wire Wire Line
	4150 2600 3900 2600
Connection ~ 3900 2600
$Comp
L Device:C C9
U 1 1 5B70665B
P 8200 4550
F 0 "C9" H 8085 4504 50  0000 R CNN
F 1 "100n" H 8085 4595 50  0000 R CNN
F 2 "Capacitor_SMD:C_0603_1608Metric" H 8238 4400 50  0001 C CNN
F 3 "~" H 8200 4550 50  0001 C CNN
	1    8200 4550
	-1   0    0    1   
$EndComp
$Comp
L Device:C C10
U 1 1 5B709E97
P 8200 5150
F 0 "C10" H 8085 5104 50  0000 R CNN
F 1 "100n" H 8085 5195 50  0000 R CNN
F 2 "Capacitor_SMD:C_0603_1608Metric" H 8238 5000 50  0001 C CNN
F 3 "~" H 8200 5150 50  0001 C CNN
	1    8200 5150
	-1   0    0    1   
$EndComp
Wire Wire Line
	7700 4400 7700 4550
Wire Wire Line
	7700 4400 8200 4400
Wire Wire Line
	7700 4300 7700 4400
Connection ~ 7700 4400
Wire Wire Line
	7700 5300 8200 5300
Wire Wire Line
	7700 5150 7700 5300
Wire Wire Line
	7700 5400 7700 5300
Connection ~ 7700 5300
$Comp
L power:GND #PWR015
U 1 1 5B70BD29
P 8450 4850
F 0 "#PWR015" H 8450 4600 50  0001 C CNN
F 1 "GND" H 8455 4677 50  0000 C CNN
F 2 "" H 8450 4850 50  0001 C CNN
F 3 "" H 8450 4850 50  0001 C CNN
	1    8450 4850
	1    0    0    -1  
$EndComp
Wire Wire Line
	8200 4700 8200 4850
Wire Wire Line
	8200 5000 8200 4850
Connection ~ 8200 4850
$Comp
L custom:ADP7118 U2
U 1 1 5B70F3FF
P 4950 4750
F 0 "U2" H 4950 5125 50  0000 C CNN
F 1 "ADP7118" H 4950 5034 50  0000 C CNN
F 2 "Package_SO:SOIC-8-1EP_3.9x4.9mm_P1.27mm_EP2.35x2.35mm" H 4950 4350 50  0001 C CIN
F 3 "http://www.analog.com/media/en/technical-documentation/data-sheets/ADP7118.pdf" H 4950 4250 50  0001 C CNN
	1    4950 4750
	1    0    0    -1  
$EndComp
$Comp
L Device:CP1 C3
U 1 1 5B710876
P 4000 4950
F 0 "C3" H 4115 4996 50  0000 L CNN
F 1 "15u" H 4115 4905 50  0000 L CNN
F 2 "Capacitor_Tantalum_SMD:CP_EIA-6032-20_AVX-F" H 4000 4950 50  0001 C CNN
F 3 "~" H 4000 4950 50  0001 C CNN
F 4 "478-1766-1-ND" H 4000 4950 50  0001 C CNN "Part"
	1    4000 4950
	1    0    0    -1  
$EndComp
Wire Wire Line
	4950 5300 4950 5100
$Comp
L Device:CP1 C5
U 1 1 5B713A54
P 5750 4950
F 0 "C5" H 5865 4996 50  0000 L CNN
F 1 "15u" H 5865 4905 50  0000 L CNN
F 2 "Capacitor_Tantalum_SMD:CP_EIA-6032-20_AVX-F" H 5750 4950 50  0001 C CNN
F 3 "~" H 5750 4950 50  0001 C CNN
F 4 "478-1766-1-ND" H 5750 4950 50  0001 C CNN "Part"
	1    5750 4950
	1    0    0    -1  
$EndComp
Connection ~ 4950 5300
Connection ~ 4350 4600
$Comp
L power:-2V5 #PWR06
U 1 1 5B71F832
P 5700 5400
F 0 "#PWR06" H 5700 5500 50  0001 C CNN
F 1 "-2V5" H 5715 5573 50  0000 C CNN
F 2 "" H 5700 5400 50  0001 C CNN
F 3 "" H 5700 5400 50  0001 C CNN
	1    5700 5400
	-1   0    0    1   
$EndComp
$Comp
L power:+2V5 #PWR013
U 1 1 5B71FA28
P 7700 4300
F 0 "#PWR013" H 7700 4150 50  0001 C CNN
F 1 "+2V5" H 7715 4473 50  0000 C CNN
F 2 "" H 7700 4300 50  0001 C CNN
F 3 "" H 7700 4300 50  0001 C CNN
	1    7700 4300
	1    0    0    -1  
$EndComp
$Comp
L power:-2V5 #PWR014
U 1 1 5B71FA57
P 7700 5400
F 0 "#PWR014" H 7700 5500 50  0001 C CNN
F 1 "-2V5" H 7715 5573 50  0000 C CNN
F 2 "" H 7700 5400 50  0001 C CNN
F 3 "" H 7700 5400 50  0001 C CNN
	1    7700 5400
	-1   0    0    1   
$EndComp
$Comp
L Connector:Conn_Coaxial J2
U 1 1 5B72EFE0
P 7550 2700
F 0 "J2" H 7649 2676 50  0000 L CNN
F 1 "Conn_Coaxial" H 7649 2585 50  0000 L CNN
F 2 "Connector_PinHeader_2.54mm:PinHeader_1x02_P2.54mm_Vertical" H 7550 2700 50  0001 C CNN
F 3 " ~" H 7550 2700 50  0001 C CNN
	1    7550 2700
	1    0    0    -1  
$EndComp
$Comp
L power:GND #PWR012
U 1 1 5B7329A7
P 7550 3000
F 0 "#PWR012" H 7550 2750 50  0001 C CNN
F 1 "GND" H 7555 2827 50  0000 C CNN
F 2 "" H 7550 3000 50  0001 C CNN
F 3 "" H 7550 3000 50  0001 C CNN
	1    7550 3000
	1    0    0    -1  
$EndComp
Wire Wire Line
	7550 2900 7550 3000
$Comp
L Connector:Barrel_Jack J1
U 1 1 5B7364B8
P 2800 4950
F 0 "J1" H 2855 5275 50  0000 C CNN
F 1 "Barrel_Jack" H 2855 5184 50  0000 C CNN
F 2 "Connector_PinHeader_2.54mm:PinHeader_1x02_P2.54mm_Vertical" H 2850 4910 50  0001 C CNN
F 3 "~" H 2850 4910 50  0001 C CNN
	1    2800 4950
	1    0    0    -1  
$EndComp
$Comp
L power:+2V5 #PWR05
U 1 1 5B71F7D2
P 5700 4450
F 0 "#PWR05" H 5700 4300 50  0001 C CNN
F 1 "+2V5" H 5715 4623 50  0000 C CNN
F 2 "" H 5700 4450 50  0001 C CNN
F 3 "" H 5700 4450 50  0001 C CNN
	1    5700 4450
	1    0    0    -1  
$EndComp
Wire Wire Line
	5700 5300 5700 5400
Wire Wire Line
	4950 5300 5700 5300
Connection ~ 5750 5300
Wire Wire Line
	5700 4450 5700 4600
Connection ~ 5700 4600
$Comp
L Device:L L1
U 1 1 5B751A59
P 3800 4600
F 0 "L1" V 3990 4600 50  0000 C CNN
F 1 "8.2u" V 3899 4600 50  0000 C CNN
F 2 "Inductor_SMD:L_1812_4532Metric" H 3800 4600 50  0001 C CNN
F 3 "~" H 3800 4600 50  0001 C CNN
F 4 "490-16860-1-ND" V 3800 4600 50  0001 C CNN "Part"
	1    3800 4600
	0    -1   -1   0   
$EndComp
$Comp
L Device:CP1 C2
U 1 1 5B7546A6
P 3600 4950
F 0 "C2" H 3715 4996 50  0000 L CNN
F 1 "15u" H 3715 4905 50  0000 L CNN
F 2 "Capacitor_Tantalum_SMD:CP_EIA-6032-20_AVX-F" H 3600 4950 50  0001 C CNN
F 3 "~" H 3600 4950 50  0001 C CNN
F 4 "478-1766-1-ND" H 3600 4950 50  0001 C CNN "Part"
	1    3600 4950
	1    0    0    -1  
$EndComp
Wire Wire Line
	3100 4850 3100 4600
Wire Wire Line
	3100 5050 3100 5300
Connection ~ 5600 3150
$Comp
L Device:R R7
U 1 1 5B71F8FA
P 7200 2700
F 0 "R7" H 7270 2746 50  0000 L CNN
F 1 "48.7" H 7270 2655 50  0000 L CNN
F 2 "Resistor_SMD:R_0805_2012Metric" V 7130 2700 50  0001 C CNN
F 3 "~" H 7200 2700 50  0001 C CNN
	1    7200 2700
	0    1    1    0   
$EndComp
$Comp
L custom:LMH6559 U3
U 1 1 5B72199D
P 6400 2700
F 0 "U3" H 6500 2550 50  0000 L CNN
F 1 "LMH6559" H 6500 2450 50  0000 L CNN
F 2 "Package_SO:SOIC-8_3.9x4.9mm_P1.27mm" H 6400 2700 50  0001 C CNN
F 3 "http://www.ti.com/lit/ds/symlink/lmh6559.pdf" H 6400 2700 50  0001 C CNN
	1    6400 2700
	1    0    0    -1  
$EndComp
Wire Wire Line
	6100 2700 5600 2700
Connection ~ 5600 2700
$Comp
L power:-2V5 #PWR08
U 1 1 5B7274C9
P 6400 3500
F 0 "#PWR08" H 6400 3600 50  0001 C CNN
F 1 "-2V5" H 6415 3673 50  0000 C CNN
F 2 "" H 6400 3500 50  0001 C CNN
F 3 "" H 6400 3500 50  0001 C CNN
	1    6400 3500
	-1   0    0    1   
$EndComp
$Comp
L power:+2V5 #PWR07
U 1 1 5B72B5BE
P 6400 1950
F 0 "#PWR07" H 6400 1800 50  0001 C CNN
F 1 "+2V5" H 6415 2123 50  0000 C CNN
F 2 "" H 6400 1950 50  0001 C CNN
F 3 "" H 6400 1950 50  0001 C CNN
	1    6400 1950
	1    0    0    -1  
$EndComp
$Comp
L Device:C C8
U 1 1 5B72D617
P 6600 3250
F 0 "C8" H 6485 3204 50  0000 R CNN
F 1 "100n" H 6485 3295 50  0000 R CNN
F 2 "Capacitor_SMD:C_0603_1608Metric" H 6638 3100 50  0001 C CNN
F 3 "~" H 6600 3250 50  0001 C CNN
	1    6600 3250
	-1   0    0    1   
$EndComp
$Comp
L Device:C C7
U 1 1 5B72D71D
P 6600 2200
F 0 "C7" H 6485 2154 50  0000 R CNN
F 1 "100n" H 6485 2245 50  0000 R CNN
F 2 "Capacitor_SMD:C_0603_1608Metric" H 6638 2050 50  0001 C CNN
F 3 "~" H 6600 2200 50  0001 C CNN
	1    6600 2200
	-1   0    0    1   
$EndComp
Wire Wire Line
	6400 1950 6400 2000
Wire Wire Line
	6400 2000 6600 2000
Wire Wire Line
	6600 2000 6600 2050
Connection ~ 6400 2000
Wire Wire Line
	6400 2000 6400 2500
Wire Wire Line
	6400 2900 6400 3050
Wire Wire Line
	6400 3050 6600 3050
Wire Wire Line
	6600 3050 6600 3100
Connection ~ 6400 3050
$Comp
L power:GND #PWR010
U 1 1 5B74AC86
P 6600 3500
F 0 "#PWR010" H 6600 3250 50  0001 C CNN
F 1 "GND" H 6605 3327 50  0000 C CNN
F 2 "" H 6600 3500 50  0001 C CNN
F 3 "" H 6600 3500 50  0001 C CNN
	1    6600 3500
	1    0    0    -1  
$EndComp
$Comp
L power:GND #PWR09
U 1 1 5B74ACCB
P 6600 2450
F 0 "#PWR09" H 6600 2200 50  0001 C CNN
F 1 "GND" H 6605 2277 50  0000 C CNN
F 2 "" H 6600 2450 50  0001 C CNN
F 3 "" H 6600 2450 50  0001 C CNN
	1    6600 2450
	1    0    0    -1  
$EndComp
Wire Wire Line
	6400 3050 6400 3500
Wire Wire Line
	4350 4600 4500 4600
Wire Wire Line
	5350 4600 5400 4600
Wire Wire Line
	4350 4900 4550 4900
Wire Wire Line
	4350 4600 4350 4900
Wire Wire Line
	6600 2350 6600 2450
Wire Wire Line
	6600 3400 6600 3500
Wire Wire Line
	8200 4850 8450 4850
Wire Wire Line
	7050 2700 6700 2700
Wire Wire Line
	4550 4650 4500 4650
Wire Wire Line
	4500 4650 4500 4600
Connection ~ 4500 4600
Wire Wire Line
	4500 4600 4550 4600
Wire Wire Line
	5350 4650 5400 4650
Wire Wire Line
	5400 4650 5400 4600
Connection ~ 5400 4600
Wire Wire Line
	5400 4600 5600 4600
Wire Wire Line
	5350 4800 5600 4800
Wire Wire Line
	5600 4800 5600 4600
Connection ~ 5600 4600
Wire Wire Line
	5600 4600 5700 4600
NoConn ~ 5350 4900
Wire Wire Line
	5000 5050 5000 5100
Wire Wire Line
	5000 5100 4950 5100
Connection ~ 4950 5100
Wire Wire Line
	4950 5100 4950 5050
Text Notes 7650 2950 0    50   ~ 0
50 Ohm cable, C not exceeding 150 pF
Text Notes 6750 2600 0    50   ~ 0
Maximum output 2 V
Wire Wire Line
	3100 4600 3250 4600
Wire Wire Line
	3100 5300 3600 5300
Wire Wire Line
	3950 4600 4000 4600
$Comp
L Device:R R1
U 1 1 5B7ABC60
P 3400 4600
F 0 "R1" V 3193 4600 50  0000 C CNN
F 1 "1" V 3284 4600 50  0000 C CNN
F 2 "Resistor_SMD:R_0603_1608Metric" V 3330 4600 50  0001 C CNN
F 3 "~" H 3400 4600 50  0001 C CNN
	1    3400 4600
	0    1    1    0   
$EndComp
Wire Wire Line
	3550 4600 3600 4600
Wire Wire Line
	3600 4800 3600 4600
Connection ~ 3600 4600
Wire Wire Line
	3600 4600 3650 4600
Wire Wire Line
	3600 5100 3600 5300
Connection ~ 3600 5300
Wire Wire Line
	3600 5300 4000 5300
Wire Wire Line
	4000 4800 4000 4600
Connection ~ 4000 4600
Wire Wire Line
	4000 4600 4350 4600
Wire Wire Line
	4000 5100 4000 5300
Connection ~ 4000 5300
Wire Wire Line
	4000 5300 4950 5300
$Comp
L custom:BUF602 U4
U 1 1 5B7AF1BC
P 6700 4900
F 0 "U4" H 6750 4800 50  0000 L CNN
F 1 "BUF602" H 6750 4700 50  0000 L CNN
F 2 "Package_TO_SOT_SMD:SOT-23-5" H 6700 4300 50  0001 C CNN
F 3 "http://www.ti.com/lit/ds/symlink/buf602.pdf" H 6700 4200 50  0001 C CNN
	1    6700 4900
	1    0    0    -1  
$EndComp
Wire Wire Line
	6700 4600 6700 4700
Wire Wire Line
	5750 5300 6150 5300
Wire Wire Line
	6700 5300 6700 5100
Connection ~ 5700 5300
Wire Wire Line
	5700 5300 5750 5300
$Comp
L power:GND #PWR011
U 1 1 5B7B5688
P 7150 5050
F 0 "#PWR011" H 7150 4800 50  0001 C CNN
F 1 "GND" H 7155 4877 50  0000 C CNN
F 2 "" H 7150 5050 50  0001 C CNN
F 3 "" H 7150 5050 50  0001 C CNN
	1    7150 5050
	1    0    0    -1  
$EndComp
Wire Wire Line
	7000 4900 7150 4900
Wire Wire Line
	7150 4900 7150 5050
$Comp
L Device:C C6
U 1 1 5B7BC6DC
P 6150 5100
F 0 "C6" H 6035 5054 50  0000 R CNN
F 1 "1u" H 6035 5145 50  0000 R CNN
F 2 "Capacitor_SMD:C_1210_3225Metric" H 6188 4950 50  0001 C CNN
F 3 "~" H 6150 5100 50  0001 C CNN
F 4 "PCF1132CT-ND" H 6150 5100 50  0001 C CNN "Part"
	1    6150 5100
	-1   0    0    1   
$EndComp
Connection ~ 6150 5300
Wire Wire Line
	6150 5300 6700 5300
Wire Wire Line
	6150 4900 6350 4900
$Comp
L Device:R R6
U 1 1 5B7BEF4E
P 6350 5100
F 0 "R6" V 6143 5100 50  0000 C CNN
F 1 "1k" V 6234 5100 50  0000 C CNN
F 2 "Resistor_SMD:R_0603_1608Metric" V 6280 5100 50  0001 C CNN
F 3 "~" H 6350 5100 50  0001 C CNN
	1    6350 5100
	-1   0    0    1   
$EndComp
Wire Wire Line
	6350 5250 6600 5250
Wire Wire Line
	6600 5250 6600 5150
Wire Wire Line
	6350 4950 6350 4900
Connection ~ 6350 4900
Wire Wire Line
	6350 4900 6400 4900
Wire Wire Line
	6150 4950 6150 4900
Wire Wire Line
	6150 5250 6150 5300
Wire Wire Line
	5700 4600 5750 4600
Wire Wire Line
	5750 4800 5750 4600
Connection ~ 5750 4600
Wire Wire Line
	5750 4600 6700 4600
Wire Wire Line
	5750 5100 5750 5300
$EndSCHEMATC
