{
	"Name": "Photodetector 2",
	"Description": "Photodetector 2",
	"Tool": "PD",
	"Design": {
		"photodiode": {
			"sensor": "",
			"reverseVoltage": 0,
			"biasPreference": "negative",
			"capacitance": "1.1e-11",
			"shuntResistance": "20000000000",
			"peakCurrent": "0.00001",
			"peakVoltage": "2",
			"speedPreference": "minPulseWidth",
			"speed": 4000000,
			"peaking": 0.761,
			"stages": "2",
			"opAmps": [
				{
					"stage": "stage_1",
					"opAmp": "AD8652",
					"locked": true,
					"found": true,
					"valid": true
				},
				{
					"stage": "stage_2",
					"opAmp": "AD8652",
					"locked": true,
					"found": true,
					"valid": true
				}
			],
			"peakingSliderValue": 7.4
		}
	},
	"CreatedDate": "2018-08-12 06:37:58 PM",
	"UpdatedDate": "2018-08-12 06:37:58 PM"
}